\contentsline {chapter}{\numberline {1}Cayley Sample Cyclic Linkages}{1}{chapter.1}% 
\contentsline {section}{\numberline {1.1}Introduction}{1}{section.1.1}% 
\contentsline {section}{\numberline {1.2}Requirements}{1}{section.1.2}% 
\contentsline {section}{\numberline {1.3}Installation}{2}{section.1.3}% 
\contentsline {chapter}{\numberline {2}Class Index}{3}{chapter.2}% 
\contentsline {section}{\numberline {2.1}Class List}{3}{section.2.1}% 
\contentsline {chapter}{\numberline {3}Class Documentation}{5}{chapter.3}% 
\contentsline {section}{\numberline {3.1}Cayley\discretionary {\unhbox \voidb@x \hbox {\relax \fontsize {7}{8}\selectfont $\leftarrow \joinrel \rhook $}}{}{}Point Class Reference}{5}{section.3.1}% 
\contentsline {subsection}{\numberline {3.1.1}Detailed Description}{5}{subsection.3.1.1}% 
\contentsline {subsection}{\numberline {3.1.2}Constructor \& Destructor Documentation}{6}{subsection.3.1.2}% 
\contentsline {subsubsection}{\numberline {3.1.2.1}Cayley\discretionary {\unhbox \voidb@x \hbox {\relax \fontsize {7}{8}\selectfont $\leftarrow \joinrel \rhook $}}{}{}Point()}{6}{subsubsection.3.1.2.1}% 
\contentsline {subsubsection}{\numberline {3.1.2.2}$\sim $\discretionary {\unhbox \voidb@x \hbox {\relax \fontsize {7}{8}\selectfont $\leftarrow \joinrel \rhook $}}{}{}Cayley\discretionary {\unhbox \voidb@x \hbox {\relax \fontsize {7}{8}\selectfont $\leftarrow \joinrel \rhook $}}{}{}Point()}{6}{subsubsection.3.1.2.2}% 
\contentsline {subsection}{\numberline {3.1.3}Member Function Documentation}{6}{subsection.3.1.3}% 
\contentsline {subsubsection}{\numberline {3.1.3.1}compute\discretionary {\unhbox \voidb@x \hbox {\relax \fontsize {7}{8}\selectfont $\leftarrow \joinrel \rhook $}}{}{}Realizations()}{6}{subsubsection.3.1.3.1}% 
\contentsline {subsubsection}{\numberline {3.1.3.2}get\discretionary {\unhbox \voidb@x \hbox {\relax \fontsize {7}{8}\selectfont $\leftarrow \joinrel \rhook $}}{}{}Coordinates()}{7}{subsubsection.3.1.3.2}% 
\contentsline {subsubsection}{\numberline {3.1.3.3}get\discretionary {\unhbox \voidb@x \hbox {\relax \fontsize {7}{8}\selectfont $\leftarrow \joinrel \rhook $}}{}{}I\discretionary {\unhbox \voidb@x \hbox {\relax \fontsize {7}{8}\selectfont $\leftarrow \joinrel \rhook $}}{}{}D()}{7}{subsubsection.3.1.3.3}% 
\contentsline {subsubsection}{\numberline {3.1.3.4}is\discretionary {\unhbox \voidb@x \hbox {\relax \fontsize {7}{8}\selectfont $\leftarrow \joinrel \rhook $}}{}{}Valid\discretionary {\unhbox \voidb@x \hbox {\relax \fontsize {7}{8}\selectfont $\leftarrow \joinrel \rhook $}}{}{}Cayley\discretionary {\unhbox \voidb@x \hbox {\relax \fontsize {7}{8}\selectfont $\leftarrow \joinrel \rhook $}}{}{}Point()}{7}{subsubsection.3.1.3.4}% 
\contentsline {section}{\numberline {3.2}Configuration\discretionary {\unhbox \voidb@x \hbox {\relax \fontsize {7}{8}\selectfont $\leftarrow \joinrel \rhook $}}{}{}Space Class Reference}{7}{section.3.2}% 
\contentsline {subsection}{\numberline {3.2.1}Detailed Description}{8}{subsection.3.2.1}% 
\contentsline {subsection}{\numberline {3.2.2}Constructor \& Destructor Documentation}{8}{subsection.3.2.2}% 
\contentsline {subsubsection}{\numberline {3.2.2.1}Configuration\discretionary {\unhbox \voidb@x \hbox {\relax \fontsize {7}{8}\selectfont $\leftarrow \joinrel \rhook $}}{}{}Space()}{8}{subsubsection.3.2.2.1}% 
\contentsline {subsubsection}{\numberline {3.2.2.2}$\sim $\discretionary {\unhbox \voidb@x \hbox {\relax \fontsize {7}{8}\selectfont $\leftarrow \joinrel \rhook $}}{}{}Configuration\discretionary {\unhbox \voidb@x \hbox {\relax \fontsize {7}{8}\selectfont $\leftarrow \joinrel \rhook $}}{}{}Space()}{9}{subsubsection.3.2.2.2}% 
\contentsline {subsection}{\numberline {3.2.3}Member Function Documentation}{9}{subsection.3.2.3}% 
\contentsline {subsubsection}{\numberline {3.2.3.1}convert\discretionary {\unhbox \voidb@x \hbox {\relax \fontsize {7}{8}\selectfont $\leftarrow \joinrel \rhook $}}{}{}To\discretionary {\unhbox \voidb@x \hbox {\relax \fontsize {7}{8}\selectfont $\leftarrow \joinrel \rhook $}}{}{}Cartesian\discretionary {\unhbox \voidb@x \hbox {\relax \fontsize {7}{8}\selectfont $\leftarrow \joinrel \rhook $}}{}{}Space()}{9}{subsubsection.3.2.3.1}% 
\contentsline {subsubsection}{\numberline {3.2.3.2}get\discretionary {\unhbox \voidb@x \hbox {\relax \fontsize {7}{8}\selectfont $\leftarrow \joinrel \rhook $}}{}{}Dimension()}{10}{subsubsection.3.2.3.2}% 
\contentsline {subsubsection}{\numberline {3.2.3.3}get\discretionary {\unhbox \voidb@x \hbox {\relax \fontsize {7}{8}\selectfont $\leftarrow \joinrel \rhook $}}{}{}Space()}{10}{subsubsection.3.2.3.3}% 
\contentsline {subsubsection}{\numberline {3.2.3.4}grid\discretionary {\unhbox \voidb@x \hbox {\relax \fontsize {7}{8}\selectfont $\leftarrow \joinrel \rhook $}}{}{}Sample\discretionary {\unhbox \voidb@x \hbox {\relax \fontsize {7}{8}\selectfont $\leftarrow \joinrel \rhook $}}{}{}Configuration\discretionary {\unhbox \voidb@x \hbox {\relax \fontsize {7}{8}\selectfont $\leftarrow \joinrel \rhook $}}{}{}Space()}{10}{subsubsection.3.2.3.4}% 
\contentsline {section}{\numberline {3.3}Constraint\discretionary {\unhbox \voidb@x \hbox {\relax \fontsize {7}{8}\selectfont $\leftarrow \joinrel \rhook $}}{}{}Graph Class Reference}{11}{section.3.3}% 
\contentsline {subsection}{\numberline {3.3.1}Detailed Description}{11}{subsection.3.3.1}% 
\contentsline {subsection}{\numberline {3.3.2}Member Function Documentation}{12}{subsection.3.3.2}% 
\contentsline {subsubsection}{\numberline {3.3.2.1}add\discretionary {\unhbox \voidb@x \hbox {\relax \fontsize {7}{8}\selectfont $\leftarrow \joinrel \rhook $}}{}{}\_\discretionary {\unhbox \voidb@x \hbox {\relax \fontsize {7}{8}\selectfont $\leftarrow \joinrel \rhook $}}{}{}cayley\discretionary {\unhbox \voidb@x \hbox {\relax \fontsize {7}{8}\selectfont $\leftarrow \joinrel \rhook $}}{}{}Parameters()}{12}{subsubsection.3.3.2.1}% 
\contentsline {subsubsection}{\numberline {3.3.2.2}create\discretionary {\unhbox \voidb@x \hbox {\relax \fontsize {7}{8}\selectfont $\leftarrow \joinrel \rhook $}}{}{}Cyclo\discretionary {\unhbox \voidb@x \hbox {\relax \fontsize {7}{8}\selectfont $\leftarrow \joinrel \rhook $}}{}{}Alkane()}{12}{subsubsection.3.3.2.2}% 
\contentsline {subsubsection}{\numberline {3.3.2.3}drop\discretionary {\unhbox \voidb@x \hbox {\relax \fontsize {7}{8}\selectfont $\leftarrow \joinrel \rhook $}}{}{}\_\discretionary {\unhbox \voidb@x \hbox {\relax \fontsize {7}{8}\selectfont $\leftarrow \joinrel \rhook $}}{}{}edges()}{13}{subsubsection.3.3.2.3}% 
\contentsline {subsubsection}{\numberline {3.3.2.4}generate\discretionary {\unhbox \voidb@x \hbox {\relax \fontsize {7}{8}\selectfont $\leftarrow \joinrel \rhook $}}{}{}Cayley\discretionary {\unhbox \voidb@x \hbox {\relax \fontsize {7}{8}\selectfont $\leftarrow \joinrel \rhook $}}{}{}Param\discretionary {\unhbox \voidb@x \hbox {\relax \fontsize {7}{8}\selectfont $\leftarrow \joinrel \rhook $}}{}{}Ranges()}{13}{subsubsection.3.3.2.4}% 
\contentsline {subsubsection}{\numberline {3.3.2.5}get\discretionary {\unhbox \voidb@x \hbox {\relax \fontsize {7}{8}\selectfont $\leftarrow \joinrel \rhook $}}{}{}Cayley\discretionary {\unhbox \voidb@x \hbox {\relax \fontsize {7}{8}\selectfont $\leftarrow \joinrel \rhook $}}{}{}Parameter\discretionary {\unhbox \voidb@x \hbox {\relax \fontsize {7}{8}\selectfont $\leftarrow \joinrel \rhook $}}{}{}Index()}{13}{subsubsection.3.3.2.5}% 
\contentsline {subsubsection}{\numberline {3.3.2.6}get\discretionary {\unhbox \voidb@x \hbox {\relax \fontsize {7}{8}\selectfont $\leftarrow \joinrel \rhook $}}{}{}Cayley\discretionary {\unhbox \voidb@x \hbox {\relax \fontsize {7}{8}\selectfont $\leftarrow \joinrel \rhook $}}{}{}Parameter\discretionary {\unhbox \voidb@x \hbox {\relax \fontsize {7}{8}\selectfont $\leftarrow \joinrel \rhook $}}{}{}Ranges()}{14}{subsubsection.3.3.2.6}% 
\contentsline {subsubsection}{\numberline {3.3.2.7}get\discretionary {\unhbox \voidb@x \hbox {\relax \fontsize {7}{8}\selectfont $\leftarrow \joinrel \rhook $}}{}{}Cayley\discretionary {\unhbox \voidb@x \hbox {\relax \fontsize {7}{8}\selectfont $\leftarrow \joinrel \rhook $}}{}{}Parameters()}{14}{subsubsection.3.3.2.7}% 
\contentsline {subsubsection}{\numberline {3.3.2.8}get\discretionary {\unhbox \voidb@x \hbox {\relax \fontsize {7}{8}\selectfont $\leftarrow \joinrel \rhook $}}{}{}Dropped\discretionary {\unhbox \voidb@x \hbox {\relax \fontsize {7}{8}\selectfont $\leftarrow \joinrel \rhook $}}{}{}Edges()}{14}{subsubsection.3.3.2.8}% 
\contentsline {subsubsection}{\numberline {3.3.2.9}get\discretionary {\unhbox \voidb@x \hbox {\relax \fontsize {7}{8}\selectfont $\leftarrow \joinrel \rhook $}}{}{}Edge\discretionary {\unhbox \voidb@x \hbox {\relax \fontsize {7}{8}\selectfont $\leftarrow \joinrel \rhook $}}{}{}Length()}{15}{subsubsection.3.3.2.9}% 
\contentsline {subsubsection}{\numberline {3.3.2.10}get\discretionary {\unhbox \voidb@x \hbox {\relax \fontsize {7}{8}\selectfont $\leftarrow \joinrel \rhook $}}{}{}Edges()}{15}{subsubsection.3.3.2.10}% 
\contentsline {subsubsection}{\numberline {3.3.2.11}get\discretionary {\unhbox \voidb@x \hbox {\relax \fontsize {7}{8}\selectfont $\leftarrow \joinrel \rhook $}}{}{}Num\discretionary {\unhbox \voidb@x \hbox {\relax \fontsize {7}{8}\selectfont $\leftarrow \joinrel \rhook $}}{}{}Cayley\discretionary {\unhbox \voidb@x \hbox {\relax \fontsize {7}{8}\selectfont $\leftarrow \joinrel \rhook $}}{}{}Parameters()}{15}{subsubsection.3.3.2.11}% 
\contentsline {subsubsection}{\numberline {3.3.2.12}get\discretionary {\unhbox \voidb@x \hbox {\relax \fontsize {7}{8}\selectfont $\leftarrow \joinrel \rhook $}}{}{}Num\discretionary {\unhbox \voidb@x \hbox {\relax \fontsize {7}{8}\selectfont $\leftarrow \joinrel \rhook $}}{}{}Dropped\discretionary {\unhbox \voidb@x \hbox {\relax \fontsize {7}{8}\selectfont $\leftarrow \joinrel \rhook $}}{}{}Edges()}{16}{subsubsection.3.3.2.12}% 
\contentsline {subsubsection}{\numberline {3.3.2.13}get\discretionary {\unhbox \voidb@x \hbox {\relax \fontsize {7}{8}\selectfont $\leftarrow \joinrel \rhook $}}{}{}Num\discretionary {\unhbox \voidb@x \hbox {\relax \fontsize {7}{8}\selectfont $\leftarrow \joinrel \rhook $}}{}{}Edges()}{16}{subsubsection.3.3.2.13}% 
\contentsline {subsubsection}{\numberline {3.3.2.14}get\discretionary {\unhbox \voidb@x \hbox {\relax \fontsize {7}{8}\selectfont $\leftarrow \joinrel \rhook $}}{}{}Num\discretionary {\unhbox \voidb@x \hbox {\relax \fontsize {7}{8}\selectfont $\leftarrow \joinrel \rhook $}}{}{}Vertices()}{16}{subsubsection.3.3.2.14}% 
\contentsline {subsubsection}{\numberline {3.3.2.15}get\discretionary {\unhbox \voidb@x \hbox {\relax \fontsize {7}{8}\selectfont $\leftarrow \joinrel \rhook $}}{}{}Tetrahedra()}{16}{subsubsection.3.3.2.15}% 
\contentsline {section}{\numberline {3.4}Orientation Class Reference}{17}{section.3.4}% 
\contentsline {subsection}{\numberline {3.4.1}Detailed Description}{17}{subsection.3.4.1}% 
\contentsline {subsection}{\numberline {3.4.2}Constructor \& Destructor Documentation}{17}{subsection.3.4.2}% 
\contentsline {subsubsection}{\numberline {3.4.2.1}$\sim $\discretionary {\unhbox \voidb@x \hbox {\relax \fontsize {7}{8}\selectfont $\leftarrow \joinrel \rhook $}}{}{}Orientation()}{17}{subsubsection.3.4.2.1}% 
\contentsline {subsection}{\numberline {3.4.3}Member Function Documentation}{18}{subsection.3.4.3}% 
\contentsline {subsubsection}{\numberline {3.4.3.1}get\discretionary {\unhbox \voidb@x \hbox {\relax \fontsize {7}{8}\selectfont $\leftarrow \joinrel \rhook $}}{}{}Free\discretionary {\unhbox \voidb@x \hbox {\relax \fontsize {7}{8}\selectfont $\leftarrow \joinrel \rhook $}}{}{}Cayeley\discretionary {\unhbox \voidb@x \hbox {\relax \fontsize {7}{8}\selectfont $\leftarrow \joinrel \rhook $}}{}{}Parameters()}{18}{subsubsection.3.4.3.1}% 
\contentsline {subsubsection}{\numberline {3.4.3.2}get\discretionary {\unhbox \voidb@x \hbox {\relax \fontsize {7}{8}\selectfont $\leftarrow \joinrel \rhook $}}{}{}Global\discretionary {\unhbox \voidb@x \hbox {\relax \fontsize {7}{8}\selectfont $\leftarrow \joinrel \rhook $}}{}{}Rigidity\discretionary {\unhbox \voidb@x \hbox {\relax \fontsize {7}{8}\selectfont $\leftarrow \joinrel \rhook $}}{}{}Parameters()}{18}{subsubsection.3.4.3.2}% 
\contentsline {subsubsection}{\numberline {3.4.3.3}get\discretionary {\unhbox \voidb@x \hbox {\relax \fontsize {7}{8}\selectfont $\leftarrow \joinrel \rhook $}}{}{}Sub\discretionary {\unhbox \voidb@x \hbox {\relax \fontsize {7}{8}\selectfont $\leftarrow \joinrel \rhook $}}{}{}Flip\discretionary {\unhbox \voidb@x \hbox {\relax \fontsize {7}{8}\selectfont $\leftarrow \joinrel \rhook $}}{}{}Num()}{18}{subsubsection.3.4.3.3}% 
\contentsline {subsubsection}{\numberline {3.4.3.4}get\discretionary {\unhbox \voidb@x \hbox {\relax \fontsize {7}{8}\selectfont $\leftarrow \joinrel \rhook $}}{}{}Tetra\discretionary {\unhbox \voidb@x \hbox {\relax \fontsize {7}{8}\selectfont $\leftarrow \joinrel \rhook $}}{}{}Flip\discretionary {\unhbox \voidb@x \hbox {\relax \fontsize {7}{8}\selectfont $\leftarrow \joinrel \rhook $}}{}{}Num()}{18}{subsubsection.3.4.3.4}% 
\contentsline {subsubsection}{\numberline {3.4.3.5}set\discretionary {\unhbox \voidb@x \hbox {\relax \fontsize {7}{8}\selectfont $\leftarrow \joinrel \rhook $}}{}{}Free\discretionary {\unhbox \voidb@x \hbox {\relax \fontsize {7}{8}\selectfont $\leftarrow \joinrel \rhook $}}{}{}Cayeley\discretionary {\unhbox \voidb@x \hbox {\relax \fontsize {7}{8}\selectfont $\leftarrow \joinrel \rhook $}}{}{}Parameters()}{18}{subsubsection.3.4.3.5}% 
\contentsline {subsubsection}{\numberline {3.4.3.6}set\discretionary {\unhbox \voidb@x \hbox {\relax \fontsize {7}{8}\selectfont $\leftarrow \joinrel \rhook $}}{}{}Global\discretionary {\unhbox \voidb@x \hbox {\relax \fontsize {7}{8}\selectfont $\leftarrow \joinrel \rhook $}}{}{}Rigidity\discretionary {\unhbox \voidb@x \hbox {\relax \fontsize {7}{8}\selectfont $\leftarrow \joinrel \rhook $}}{}{}Parameters()}{19}{subsubsection.3.4.3.6}% 
\contentsline {subsubsection}{\numberline {3.4.3.7}set\discretionary {\unhbox \voidb@x \hbox {\relax \fontsize {7}{8}\selectfont $\leftarrow \joinrel \rhook $}}{}{}Sub\discretionary {\unhbox \voidb@x \hbox {\relax \fontsize {7}{8}\selectfont $\leftarrow \joinrel \rhook $}}{}{}Flip\discretionary {\unhbox \voidb@x \hbox {\relax \fontsize {7}{8}\selectfont $\leftarrow \joinrel \rhook $}}{}{}Num()}{19}{subsubsection.3.4.3.7}% 
\contentsline {subsubsection}{\numberline {3.4.3.8}set\discretionary {\unhbox \voidb@x \hbox {\relax \fontsize {7}{8}\selectfont $\leftarrow \joinrel \rhook $}}{}{}Tetra\discretionary {\unhbox \voidb@x \hbox {\relax \fontsize {7}{8}\selectfont $\leftarrow \joinrel \rhook $}}{}{}Flip\discretionary {\unhbox \voidb@x \hbox {\relax \fontsize {7}{8}\selectfont $\leftarrow \joinrel \rhook $}}{}{}Num()}{19}{subsubsection.3.4.3.8}% 
\contentsline {chapter}{Index}{21}{section*.7}% 
