\relax 
\providecommand\hyper@newdestlabel[2]{}
\providecommand\HyperFirstAtBeginDocument{\AtBeginDocument}
\HyperFirstAtBeginDocument{\ifx\hyper@anchor\@undefined
\global\let\oldcontentsline\contentsline
\gdef\contentsline#1#2#3#4{\oldcontentsline{#1}{#2}{#3}}
\global\let\oldnewlabel\newlabel
\gdef\newlabel#1#2{\newlabelxx{#1}#2}
\gdef\newlabelxx#1#2#3#4#5#6{\oldnewlabel{#1}{{#2}{#3}}}
\AtEndDocument{\ifx\hyper@anchor\@undefined
\let\contentsline\oldcontentsline
\let\newlabel\oldnewlabel
\fi}
\fi}
\global\let\hyper@last\relax 
\gdef\HyperFirstAtBeginDocument#1{#1}
\providecommand\HyField@AuxAddToFields[1]{}
\providecommand\HyField@AuxAddToCoFields[2]{}
\providecommand \oddpage@label [2]{}
\@writefile{toc}{\contentsline {chapter}{\numberline {1}Cayley Sample Cyclic Linkages}{1}{chapter.1}\protected@file@percent }
\@writefile{lof}{\addvspace {10\p@ }}
\@writefile{lot}{\addvspace {10\p@ }}
\newlabel{index}{{1}{1}{Cayley Sample Cyclic Linkages}{chapter.1}{}}
\@writefile{toc}{\contentsline {section}{\numberline {1.1}Introduction}{1}{section.1.1}\protected@file@percent }
\newlabel{index_intro_sec}{{1.1}{1}{Introduction}{section.1.1}{}}
\@writefile{toc}{\contentsline {section}{\numberline {1.2}Requirements}{1}{section.1.2}\protected@file@percent }
\newlabel{index_requirements_sec}{{1.2}{1}{Requirements}{section.1.2}{}}
\@writefile{toc}{\contentsline {section}{\numberline {1.3}Installation}{2}{section.1.3}\protected@file@percent }
\newlabel{index_install_sec}{{1.3}{2}{Installation}{section.1.3}{}}
\@writefile{toc}{\contentsline {chapter}{\numberline {2}Class Index}{3}{chapter.2}\protected@file@percent }
\@writefile{lof}{\addvspace {10\p@ }}
\@writefile{lot}{\addvspace {10\p@ }}
\@writefile{toc}{\contentsline {section}{\numberline {2.1}Class List}{3}{section.2.1}\protected@file@percent }
\@writefile{toc}{\contentsline {chapter}{\numberline {3}Class Documentation}{5}{chapter.3}\protected@file@percent }
\@writefile{lof}{\addvspace {10\p@ }}
\@writefile{lot}{\addvspace {10\p@ }}
\@writefile{toc}{\contentsline {section}{\numberline {3.1}Cayley\discretionary {\unhbox \voidb@x \hbox {\relax \fontsize  {7}{8}\selectfont  $\leftarrow \joinrel  \rhook $}}{}{}Point Class Reference}{5}{section.3.1}\protected@file@percent }
\newlabel{classCayleyPoint}{{3.1}{5}{Cayley\+Point Class Reference}{section.3.1}{}}
\@writefile{toc}{\contentsline {subsection}{\numberline {3.1.1}Detailed Description}{5}{subsection.3.1.1}\protected@file@percent }
\gdef \LT@i {\LT@entry 
    {3}{24.79999pt}\LT@entry 
    {3}{58.92015pt}\LT@entry 
    {3}{163.78563pt}}
\@writefile{toc}{\contentsline {subsection}{\numberline {3.1.2}Constructor \& Destructor Documentation}{6}{subsection.3.1.2}\protected@file@percent }
\newlabel{classCayleyPoint_a401f864864b379ccbe6c415e013ae48d}{{3.1.2}{6}{Constructor \& Destructor Documentation}{subsection.3.1.2}{}}
\@writefile{toc}{\contentsline {subsubsection}{\numberline {3.1.2.1}Cayley\discretionary {\unhbox \voidb@x \hbox {\relax \fontsize  {7}{8}\selectfont  $\leftarrow \joinrel  \rhook $}}{}{}Point()}{6}{subsubsection.3.1.2.1}\protected@file@percent }
\newlabel{classCayleyPoint_aaaf3a3859812a3759bdb5e41be0a2db7}{{3.1.2.1}{6}{\texorpdfstring {Cayley\+Point()}{CayleyPoint()}}{table.3.1}{}}
\@writefile{toc}{\contentsline {subsubsection}{\numberline {3.1.2.2}$\sim $\discretionary {\unhbox \voidb@x \hbox {\relax \fontsize  {7}{8}\selectfont  $\leftarrow \joinrel  \rhook $}}{}{}Cayley\discretionary {\unhbox \voidb@x \hbox {\relax \fontsize  {7}{8}\selectfont  $\leftarrow \joinrel  \rhook $}}{}{}Point()}{6}{subsubsection.3.1.2.2}\protected@file@percent }
\@writefile{toc}{\contentsline {subsection}{\numberline {3.1.3}Member Function Documentation}{6}{subsection.3.1.3}\protected@file@percent }
\newlabel{classCayleyPoint_ae4e4ad64ccb2f0f3c355b1f120f2e1f8}{{3.1.3}{6}{Member Function Documentation}{subsection.3.1.3}{}}
\@writefile{toc}{\contentsline {subsubsection}{\numberline {3.1.3.1}compute\discretionary {\unhbox \voidb@x \hbox {\relax \fontsize  {7}{8}\selectfont  $\leftarrow \joinrel  \rhook $}}{}{}Realizations()}{6}{subsubsection.3.1.3.1}\protected@file@percent }
\newlabel{classCayleyPoint_a18c59f9857b8459f930acd8b79b1ec76}{{3.1.3.1}{6}{\texorpdfstring {compute\+Realizations()}{computeRealizations()}}{subsubsection.3.1.3.1}{}}
\@writefile{toc}{\contentsline {subsubsection}{\numberline {3.1.3.2}get\discretionary {\unhbox \voidb@x \hbox {\relax \fontsize  {7}{8}\selectfont  $\leftarrow \joinrel  \rhook $}}{}{}Coordinates()}{7}{subsubsection.3.1.3.2}\protected@file@percent }
\newlabel{classCayleyPoint_a1ada923a8942bc53ba31555c2239387b}{{3.1.3.2}{7}{\texorpdfstring {get\+Coordinates()}{getCoordinates()}}{subsubsection.3.1.3.2}{}}
\@writefile{toc}{\contentsline {subsubsection}{\numberline {3.1.3.3}get\discretionary {\unhbox \voidb@x \hbox {\relax \fontsize  {7}{8}\selectfont  $\leftarrow \joinrel  \rhook $}}{}{}I\discretionary {\unhbox \voidb@x \hbox {\relax \fontsize  {7}{8}\selectfont  $\leftarrow \joinrel  \rhook $}}{}{}D()}{7}{subsubsection.3.1.3.3}\protected@file@percent }
\newlabel{classCayleyPoint_acda9bfb807120c087a1ad13a9b9bfb42}{{3.1.3.3}{7}{\texorpdfstring {get\+I\+D()}{getID()}}{subsubsection.3.1.3.3}{}}
\@writefile{toc}{\contentsline {subsubsection}{\numberline {3.1.3.4}is\discretionary {\unhbox \voidb@x \hbox {\relax \fontsize  {7}{8}\selectfont  $\leftarrow \joinrel  \rhook $}}{}{}Valid\discretionary {\unhbox \voidb@x \hbox {\relax \fontsize  {7}{8}\selectfont  $\leftarrow \joinrel  \rhook $}}{}{}Cayley\discretionary {\unhbox \voidb@x \hbox {\relax \fontsize  {7}{8}\selectfont  $\leftarrow \joinrel  \rhook $}}{}{}Point()}{7}{subsubsection.3.1.3.4}\protected@file@percent }
\@writefile{toc}{\contentsline {section}{\numberline {3.2}Configuration\discretionary {\unhbox \voidb@x \hbox {\relax \fontsize  {7}{8}\selectfont  $\leftarrow \joinrel  \rhook $}}{}{}Space Class Reference}{7}{section.3.2}\protected@file@percent }
\newlabel{classConfigurationSpace}{{3.2}{7}{Configuration\+Space Class Reference}{section.3.2}{}}
\gdef \LT@ii {\LT@entry 
    {3}{24.79999pt}\LT@entry 
    {3}{46.77946pt}\LT@entry 
    {3}{156.19897pt}}
\@writefile{toc}{\contentsline {subsection}{\numberline {3.2.1}Detailed Description}{8}{subsection.3.2.1}\protected@file@percent }
\@writefile{toc}{\contentsline {subsection}{\numberline {3.2.2}Constructor \& Destructor Documentation}{8}{subsection.3.2.2}\protected@file@percent }
\newlabel{classConfigurationSpace_ada06fddae82d2067a2ef8520597d3cf8}{{3.2.2}{8}{Constructor \& Destructor Documentation}{subsection.3.2.2}{}}
\@writefile{toc}{\contentsline {subsubsection}{\numberline {3.2.2.1}Configuration\discretionary {\unhbox \voidb@x \hbox {\relax \fontsize  {7}{8}\selectfont  $\leftarrow \joinrel  \rhook $}}{}{}Space()}{8}{subsubsection.3.2.2.1}\protected@file@percent }
\newlabel{classConfigurationSpace_a7719be440b7abd10b738204f11d5457a}{{3.2.2.1}{9}{\texorpdfstring {Configuration\+Space()}{ConfigurationSpace()}}{table.3.2}{}}
\@writefile{toc}{\contentsline {subsubsection}{\numberline {3.2.2.2}$\sim $\discretionary {\unhbox \voidb@x \hbox {\relax \fontsize  {7}{8}\selectfont  $\leftarrow \joinrel  \rhook $}}{}{}Configuration\discretionary {\unhbox \voidb@x \hbox {\relax \fontsize  {7}{8}\selectfont  $\leftarrow \joinrel  \rhook $}}{}{}Space()}{9}{subsubsection.3.2.2.2}\protected@file@percent }
\@writefile{toc}{\contentsline {subsection}{\numberline {3.2.3}Member Function Documentation}{9}{subsection.3.2.3}\protected@file@percent }
\newlabel{classConfigurationSpace_a5b8a1aba217b1953d4055141fe2103d9}{{3.2.3}{9}{Member Function Documentation}{subsection.3.2.3}{}}
\@writefile{toc}{\contentsline {subsubsection}{\numberline {3.2.3.1}convert\discretionary {\unhbox \voidb@x \hbox {\relax \fontsize  {7}{8}\selectfont  $\leftarrow \joinrel  \rhook $}}{}{}To\discretionary {\unhbox \voidb@x \hbox {\relax \fontsize  {7}{8}\selectfont  $\leftarrow \joinrel  \rhook $}}{}{}Cartesian\discretionary {\unhbox \voidb@x \hbox {\relax \fontsize  {7}{8}\selectfont  $\leftarrow \joinrel  \rhook $}}{}{}Space()}{9}{subsubsection.3.2.3.1}\protected@file@percent }
\newlabel{classConfigurationSpace_a7ae4ee410eb01059925278ef2de45069}{{3.2.3.1}{9}{\texorpdfstring {convert\+To\+Cartesian\+Space()}{convertToCartesianSpace()}}{subsubsection.3.2.3.1}{}}
\@writefile{toc}{\contentsline {subsubsection}{\numberline {3.2.3.2}get\discretionary {\unhbox \voidb@x \hbox {\relax \fontsize  {7}{8}\selectfont  $\leftarrow \joinrel  \rhook $}}{}{}Dimension()}{10}{subsubsection.3.2.3.2}\protected@file@percent }
\newlabel{classConfigurationSpace_a1626e37ae92a55a0e4246ae91404b2c8}{{3.2.3.2}{10}{\texorpdfstring {get\+Dimension()}{getDimension()}}{subsubsection.3.2.3.2}{}}
\@writefile{toc}{\contentsline {subsubsection}{\numberline {3.2.3.3}get\discretionary {\unhbox \voidb@x \hbox {\relax \fontsize  {7}{8}\selectfont  $\leftarrow \joinrel  \rhook $}}{}{}Space()}{10}{subsubsection.3.2.3.3}\protected@file@percent }
\newlabel{classConfigurationSpace_a7c1b7ffbf6c76e6ccbe6e1ea577df587}{{3.2.3.3}{10}{\texorpdfstring {get\+Space()}{getSpace()}}{subsubsection.3.2.3.3}{}}
\@writefile{toc}{\contentsline {subsubsection}{\numberline {3.2.3.4}grid\discretionary {\unhbox \voidb@x \hbox {\relax \fontsize  {7}{8}\selectfont  $\leftarrow \joinrel  \rhook $}}{}{}Sample\discretionary {\unhbox \voidb@x \hbox {\relax \fontsize  {7}{8}\selectfont  $\leftarrow \joinrel  \rhook $}}{}{}Configuration\discretionary {\unhbox \voidb@x \hbox {\relax \fontsize  {7}{8}\selectfont  $\leftarrow \joinrel  \rhook $}}{}{}Space()}{10}{subsubsection.3.2.3.4}\protected@file@percent }
\@writefile{toc}{\contentsline {section}{\numberline {3.3}Constraint\discretionary {\unhbox \voidb@x \hbox {\relax \fontsize  {7}{8}\selectfont  $\leftarrow \joinrel  \rhook $}}{}{}Graph Class Reference}{11}{section.3.3}\protected@file@percent }
\newlabel{classConstraintGraph}{{3.3}{11}{Constraint\+Graph Class Reference}{section.3.3}{}}
\@writefile{toc}{\contentsline {subsection}{\numberline {3.3.1}Detailed Description}{11}{subsection.3.3.1}\protected@file@percent }
\gdef \LT@iii {\LT@entry 
    {3}{24.79999pt}\LT@entry 
    {3}{60.32405pt}\LT@entry 
    {3}{182.46944pt}}
\@writefile{toc}{\contentsline {subsection}{\numberline {3.3.2}Member Function Documentation}{12}{subsection.3.3.2}\protected@file@percent }
\newlabel{classConstraintGraph_a84bccf63594cc5e08083c620f03767fa}{{3.3.2}{12}{Member Function Documentation}{subsection.3.3.2}{}}
\@writefile{toc}{\contentsline {subsubsection}{\numberline {3.3.2.1}add\discretionary {\unhbox \voidb@x \hbox {\relax \fontsize  {7}{8}\selectfont  $\leftarrow \joinrel  \rhook $}}{}{}\_\discretionary {\unhbox \voidb@x \hbox {\relax \fontsize  {7}{8}\selectfont  $\leftarrow \joinrel  \rhook $}}{}{}cayley\discretionary {\unhbox \voidb@x \hbox {\relax \fontsize  {7}{8}\selectfont  $\leftarrow \joinrel  \rhook $}}{}{}Parameters()}{12}{subsubsection.3.3.2.1}\protected@file@percent }
\newlabel{classConstraintGraph_afe90d201342873aeecb4c342ca2f4012}{{3.3.2.1}{12}{\texorpdfstring {add\+\_\+cayley\+Parameters()}{add\_cayleyParameters()}}{subsubsection.3.3.2.1}{}}
\@writefile{toc}{\contentsline {subsubsection}{\numberline {3.3.2.2}create\discretionary {\unhbox \voidb@x \hbox {\relax \fontsize  {7}{8}\selectfont  $\leftarrow \joinrel  \rhook $}}{}{}Cyclo\discretionary {\unhbox \voidb@x \hbox {\relax \fontsize  {7}{8}\selectfont  $\leftarrow \joinrel  \rhook $}}{}{}Alkane()}{12}{subsubsection.3.3.2.2}\protected@file@percent }
\newlabel{classConstraintGraph_a7ced844605d4673fe416d1b463ff7919}{{3.3.2.2}{12}{\texorpdfstring {create\+Cyclo\+Alkane()}{createCycloAlkane()}}{table.3.3}{}}
\@writefile{toc}{\contentsline {subsubsection}{\numberline {3.3.2.3}drop\discretionary {\unhbox \voidb@x \hbox {\relax \fontsize  {7}{8}\selectfont  $\leftarrow \joinrel  \rhook $}}{}{}\_\discretionary {\unhbox \voidb@x \hbox {\relax \fontsize  {7}{8}\selectfont  $\leftarrow \joinrel  \rhook $}}{}{}edges()}{13}{subsubsection.3.3.2.3}\protected@file@percent }
\newlabel{classConstraintGraph_a3629ce82d2a9a0662347be4733c2b0ea}{{3.3.2.3}{13}{\texorpdfstring {drop\+\_\+edges()}{drop\_edges()}}{subsubsection.3.3.2.3}{}}
\@writefile{toc}{\contentsline {subsubsection}{\numberline {3.3.2.4}generate\discretionary {\unhbox \voidb@x \hbox {\relax \fontsize  {7}{8}\selectfont  $\leftarrow \joinrel  \rhook $}}{}{}Cayley\discretionary {\unhbox \voidb@x \hbox {\relax \fontsize  {7}{8}\selectfont  $\leftarrow \joinrel  \rhook $}}{}{}Param\discretionary {\unhbox \voidb@x \hbox {\relax \fontsize  {7}{8}\selectfont  $\leftarrow \joinrel  \rhook $}}{}{}Ranges()}{13}{subsubsection.3.3.2.4}\protected@file@percent }
\newlabel{classConstraintGraph_a69ce04f6a0b4bd1f2fbf5e185df1b13a}{{3.3.2.4}{13}{\texorpdfstring {generate\+Cayley\+Param\+Ranges()}{generateCayleyParamRanges()}}{subsubsection.3.3.2.4}{}}
\@writefile{toc}{\contentsline {subsubsection}{\numberline {3.3.2.5}get\discretionary {\unhbox \voidb@x \hbox {\relax \fontsize  {7}{8}\selectfont  $\leftarrow \joinrel  \rhook $}}{}{}Cayley\discretionary {\unhbox \voidb@x \hbox {\relax \fontsize  {7}{8}\selectfont  $\leftarrow \joinrel  \rhook $}}{}{}Parameter\discretionary {\unhbox \voidb@x \hbox {\relax \fontsize  {7}{8}\selectfont  $\leftarrow \joinrel  \rhook $}}{}{}Index()}{13}{subsubsection.3.3.2.5}\protected@file@percent }
\gdef \LT@iv {\LT@entry 
    {3}{24.79999pt}\LT@entry 
    {3}{26.90765pt}\LT@entry 
    {3}{122.33249pt}}
\newlabel{classConstraintGraph_a933e83c34191f01cfa62871b0cb6a51c}{{3.3.2.5}{14}{\texorpdfstring {get\+Cayley\+Parameter\+Index()}{getCayleyParameterIndex()}}{table.3.4}{}}
\@writefile{toc}{\contentsline {subsubsection}{\numberline {3.3.2.6}get\discretionary {\unhbox \voidb@x \hbox {\relax \fontsize  {7}{8}\selectfont  $\leftarrow \joinrel  \rhook $}}{}{}Cayley\discretionary {\unhbox \voidb@x \hbox {\relax \fontsize  {7}{8}\selectfont  $\leftarrow \joinrel  \rhook $}}{}{}Parameter\discretionary {\unhbox \voidb@x \hbox {\relax \fontsize  {7}{8}\selectfont  $\leftarrow \joinrel  \rhook $}}{}{}Ranges()}{14}{subsubsection.3.3.2.6}\protected@file@percent }
\newlabel{classConstraintGraph_ae7baf01efacb24ee45f64a9c6869c13e}{{3.3.2.6}{14}{\texorpdfstring {get\+Cayley\+Parameter\+Ranges()}{getCayleyParameterRanges()}}{subsubsection.3.3.2.6}{}}
\@writefile{toc}{\contentsline {subsubsection}{\numberline {3.3.2.7}get\discretionary {\unhbox \voidb@x \hbox {\relax \fontsize  {7}{8}\selectfont  $\leftarrow \joinrel  \rhook $}}{}{}Cayley\discretionary {\unhbox \voidb@x \hbox {\relax \fontsize  {7}{8}\selectfont  $\leftarrow \joinrel  \rhook $}}{}{}Parameters()}{14}{subsubsection.3.3.2.7}\protected@file@percent }
\newlabel{classConstraintGraph_a3ceebb74dbe791d4ef789e26d0689c5f}{{3.3.2.7}{14}{\texorpdfstring {get\+Cayley\+Parameters()}{getCayleyParameters()}}{subsubsection.3.3.2.7}{}}
\@writefile{toc}{\contentsline {subsubsection}{\numberline {3.3.2.8}get\discretionary {\unhbox \voidb@x \hbox {\relax \fontsize  {7}{8}\selectfont  $\leftarrow \joinrel  \rhook $}}{}{}Dropped\discretionary {\unhbox \voidb@x \hbox {\relax \fontsize  {7}{8}\selectfont  $\leftarrow \joinrel  \rhook $}}{}{}Edges()}{14}{subsubsection.3.3.2.8}\protected@file@percent }
\newlabel{classConstraintGraph_a0635fb4c9421cd427124ce7558e50ab8}{{3.3.2.8}{14}{\texorpdfstring {get\+Dropped\+Edges()}{getDroppedEdges()}}{subsubsection.3.3.2.8}{}}
\@writefile{toc}{\contentsline {subsubsection}{\numberline {3.3.2.9}get\discretionary {\unhbox \voidb@x \hbox {\relax \fontsize  {7}{8}\selectfont  $\leftarrow \joinrel  \rhook $}}{}{}Edge\discretionary {\unhbox \voidb@x \hbox {\relax \fontsize  {7}{8}\selectfont  $\leftarrow \joinrel  \rhook $}}{}{}Length()}{15}{subsubsection.3.3.2.9}\protected@file@percent }
\newlabel{classConstraintGraph_ab8771c869f6e8bb58cc255e65e769285}{{3.3.2.9}{15}{\texorpdfstring {get\+Edge\+Length()}{getEdgeLength()}}{subsubsection.3.3.2.9}{}}
\@writefile{toc}{\contentsline {subsubsection}{\numberline {3.3.2.10}get\discretionary {\unhbox \voidb@x \hbox {\relax \fontsize  {7}{8}\selectfont  $\leftarrow \joinrel  \rhook $}}{}{}Edges()}{15}{subsubsection.3.3.2.10}\protected@file@percent }
\newlabel{classConstraintGraph_a0af04ac27c04ef12d4ebc79b0e9a7035}{{3.3.2.10}{15}{\texorpdfstring {get\+Edges()}{getEdges()}}{subsubsection.3.3.2.10}{}}
\@writefile{toc}{\contentsline {subsubsection}{\numberline {3.3.2.11}get\discretionary {\unhbox \voidb@x \hbox {\relax \fontsize  {7}{8}\selectfont  $\leftarrow \joinrel  \rhook $}}{}{}Num\discretionary {\unhbox \voidb@x \hbox {\relax \fontsize  {7}{8}\selectfont  $\leftarrow \joinrel  \rhook $}}{}{}Cayley\discretionary {\unhbox \voidb@x \hbox {\relax \fontsize  {7}{8}\selectfont  $\leftarrow \joinrel  \rhook $}}{}{}Parameters()}{15}{subsubsection.3.3.2.11}\protected@file@percent }
\newlabel{classConstraintGraph_a50d941a88a54ea1c7245cd5ff3b6fbf4}{{3.3.2.11}{15}{\texorpdfstring {get\+Num\+Cayley\+Parameters()}{getNumCayleyParameters()}}{subsubsection.3.3.2.11}{}}
\@writefile{toc}{\contentsline {subsubsection}{\numberline {3.3.2.12}get\discretionary {\unhbox \voidb@x \hbox {\relax \fontsize  {7}{8}\selectfont  $\leftarrow \joinrel  \rhook $}}{}{}Num\discretionary {\unhbox \voidb@x \hbox {\relax \fontsize  {7}{8}\selectfont  $\leftarrow \joinrel  \rhook $}}{}{}Dropped\discretionary {\unhbox \voidb@x \hbox {\relax \fontsize  {7}{8}\selectfont  $\leftarrow \joinrel  \rhook $}}{}{}Edges()}{16}{subsubsection.3.3.2.12}\protected@file@percent }
\newlabel{classConstraintGraph_a24d4e9567d4479eb984e6a9ab57a4b91}{{3.3.2.12}{16}{\texorpdfstring {get\+Num\+Dropped\+Edges()}{getNumDroppedEdges()}}{subsubsection.3.3.2.12}{}}
\@writefile{toc}{\contentsline {subsubsection}{\numberline {3.3.2.13}get\discretionary {\unhbox \voidb@x \hbox {\relax \fontsize  {7}{8}\selectfont  $\leftarrow \joinrel  \rhook $}}{}{}Num\discretionary {\unhbox \voidb@x \hbox {\relax \fontsize  {7}{8}\selectfont  $\leftarrow \joinrel  \rhook $}}{}{}Edges()}{16}{subsubsection.3.3.2.13}\protected@file@percent }
\newlabel{classConstraintGraph_a4c9c61376bd9fdb94c0c98ee0e31115b}{{3.3.2.13}{16}{\texorpdfstring {get\+Num\+Edges()}{getNumEdges()}}{subsubsection.3.3.2.13}{}}
\@writefile{toc}{\contentsline {subsubsection}{\numberline {3.3.2.14}get\discretionary {\unhbox \voidb@x \hbox {\relax \fontsize  {7}{8}\selectfont  $\leftarrow \joinrel  \rhook $}}{}{}Num\discretionary {\unhbox \voidb@x \hbox {\relax \fontsize  {7}{8}\selectfont  $\leftarrow \joinrel  \rhook $}}{}{}Vertices()}{16}{subsubsection.3.3.2.14}\protected@file@percent }
\newlabel{classConstraintGraph_ae6514178c98927e1e229dc905e5c5f00}{{3.3.2.14}{16}{\texorpdfstring {get\+Num\+Vertices()}{getNumVertices()}}{subsubsection.3.3.2.14}{}}
\@writefile{toc}{\contentsline {subsubsection}{\numberline {3.3.2.15}get\discretionary {\unhbox \voidb@x \hbox {\relax \fontsize  {7}{8}\selectfont  $\leftarrow \joinrel  \rhook $}}{}{}Tetrahedra()}{16}{subsubsection.3.3.2.15}\protected@file@percent }
\@writefile{toc}{\contentsline {section}{\numberline {3.4}Orientation Class Reference}{17}{section.3.4}\protected@file@percent }
\newlabel{classOrientation}{{3.4}{17}{Orientation Class Reference}{section.3.4}{}}
\newlabel{classOrientation_afa8e101af342cdf57d5e33109ffc6529}{{3.4}{17}{Public Member Functions}{section*.6}{}}
\@writefile{toc}{\contentsline {subsection}{\numberline {3.4.1}Detailed Description}{17}{subsection.3.4.1}\protected@file@percent }
\@writefile{toc}{\contentsline {subsection}{\numberline {3.4.2}Constructor \& Destructor Documentation}{17}{subsection.3.4.2}\protected@file@percent }
\newlabel{classOrientation_a8c96df6f0b3b9a9edc7f9a0a9cc10741}{{3.4.2}{17}{Constructor \& Destructor Documentation}{subsection.3.4.2}{}}
\@writefile{toc}{\contentsline {subsubsection}{\numberline {3.4.2.1}$\sim $\discretionary {\unhbox \voidb@x \hbox {\relax \fontsize  {7}{8}\selectfont  $\leftarrow \joinrel  \rhook $}}{}{}Orientation()}{17}{subsubsection.3.4.2.1}\protected@file@percent }
\@writefile{toc}{\contentsline {subsection}{\numberline {3.4.3}Member Function Documentation}{18}{subsection.3.4.3}\protected@file@percent }
\newlabel{classOrientation_a12eaab92e880b7018b3e0c39b5d3d21a}{{3.4.3}{18}{Member Function Documentation}{subsection.3.4.3}{}}
\@writefile{toc}{\contentsline {subsubsection}{\numberline {3.4.3.1}get\discretionary {\unhbox \voidb@x \hbox {\relax \fontsize  {7}{8}\selectfont  $\leftarrow \joinrel  \rhook $}}{}{}Free\discretionary {\unhbox \voidb@x \hbox {\relax \fontsize  {7}{8}\selectfont  $\leftarrow \joinrel  \rhook $}}{}{}Cayeley\discretionary {\unhbox \voidb@x \hbox {\relax \fontsize  {7}{8}\selectfont  $\leftarrow \joinrel  \rhook $}}{}{}Parameters()}{18}{subsubsection.3.4.3.1}\protected@file@percent }
\newlabel{classOrientation_a3ba56b9f5761d8abde6e3fb03f6bcdbc}{{3.4.3.1}{18}{\texorpdfstring {get\+Free\+Cayeley\+Parameters()}{getFreeCayeleyParameters()}}{subsubsection.3.4.3.1}{}}
\@writefile{toc}{\contentsline {subsubsection}{\numberline {3.4.3.2}get\discretionary {\unhbox \voidb@x \hbox {\relax \fontsize  {7}{8}\selectfont  $\leftarrow \joinrel  \rhook $}}{}{}Global\discretionary {\unhbox \voidb@x \hbox {\relax \fontsize  {7}{8}\selectfont  $\leftarrow \joinrel  \rhook $}}{}{}Rigidity\discretionary {\unhbox \voidb@x \hbox {\relax \fontsize  {7}{8}\selectfont  $\leftarrow \joinrel  \rhook $}}{}{}Parameters()}{18}{subsubsection.3.4.3.2}\protected@file@percent }
\newlabel{classOrientation_a91507cfe65c48513cfbb29373f913942}{{3.4.3.2}{18}{\texorpdfstring {get\+Global\+Rigidity\+Parameters()}{getGlobalRigidityParameters()}}{subsubsection.3.4.3.2}{}}
\@writefile{toc}{\contentsline {subsubsection}{\numberline {3.4.3.3}get\discretionary {\unhbox \voidb@x \hbox {\relax \fontsize  {7}{8}\selectfont  $\leftarrow \joinrel  \rhook $}}{}{}Sub\discretionary {\unhbox \voidb@x \hbox {\relax \fontsize  {7}{8}\selectfont  $\leftarrow \joinrel  \rhook $}}{}{}Flip\discretionary {\unhbox \voidb@x \hbox {\relax \fontsize  {7}{8}\selectfont  $\leftarrow \joinrel  \rhook $}}{}{}Num()}{18}{subsubsection.3.4.3.3}\protected@file@percent }
\newlabel{classOrientation_a5897d80000f6a64623af1063b4b87403}{{3.4.3.3}{18}{\texorpdfstring {get\+Sub\+Flip\+Num()}{getSubFlipNum()}}{subsubsection.3.4.3.3}{}}
\@writefile{toc}{\contentsline {subsubsection}{\numberline {3.4.3.4}get\discretionary {\unhbox \voidb@x \hbox {\relax \fontsize  {7}{8}\selectfont  $\leftarrow \joinrel  \rhook $}}{}{}Tetra\discretionary {\unhbox \voidb@x \hbox {\relax \fontsize  {7}{8}\selectfont  $\leftarrow \joinrel  \rhook $}}{}{}Flip\discretionary {\unhbox \voidb@x \hbox {\relax \fontsize  {7}{8}\selectfont  $\leftarrow \joinrel  \rhook $}}{}{}Num()}{18}{subsubsection.3.4.3.4}\protected@file@percent }
\newlabel{classOrientation_af9ba0cdc3d9a92a62657fa063b154e54}{{3.4.3.4}{18}{\texorpdfstring {get\+Tetra\+Flip\+Num()}{getTetraFlipNum()}}{subsubsection.3.4.3.4}{}}
\@writefile{toc}{\contentsline {subsubsection}{\numberline {3.4.3.5}set\discretionary {\unhbox \voidb@x \hbox {\relax \fontsize  {7}{8}\selectfont  $\leftarrow \joinrel  \rhook $}}{}{}Free\discretionary {\unhbox \voidb@x \hbox {\relax \fontsize  {7}{8}\selectfont  $\leftarrow \joinrel  \rhook $}}{}{}Cayeley\discretionary {\unhbox \voidb@x \hbox {\relax \fontsize  {7}{8}\selectfont  $\leftarrow \joinrel  \rhook $}}{}{}Parameters()}{18}{subsubsection.3.4.3.5}\protected@file@percent }
\gdef \LT@v {\LT@entry 
    {3}{24.79999pt}\LT@entry 
    {3}{86.01875pt}\LT@entry 
    {3}{259.46312pt}}
\gdef \LT@vi {\LT@entry 
    {3}{24.79999pt}\LT@entry 
    {3}{116.978pt}\LT@entry 
    {3}{267.96802pt}}
\gdef \LT@vii {\LT@entry 
    {3}{24.79999pt}\LT@entry 
    {3}{65.40906pt}\LT@entry 
    {3}{150.0157pt}}
\gdef \LT@viii {\LT@entry 
    {3}{24.79999pt}\LT@entry 
    {3}{68.81981pt}\LT@entry 
    {3}{178.76115pt}}
\newlabel{classOrientation_aaf228e0362b152f56e932c09f2840e5a}{{3.4.3.5}{19}{\texorpdfstring {set\+Free\+Cayeley\+Parameters()}{setFreeCayeleyParameters()}}{table.3.5}{}}
\@writefile{toc}{\contentsline {subsubsection}{\numberline {3.4.3.6}set\discretionary {\unhbox \voidb@x \hbox {\relax \fontsize  {7}{8}\selectfont  $\leftarrow \joinrel  \rhook $}}{}{}Global\discretionary {\unhbox \voidb@x \hbox {\relax \fontsize  {7}{8}\selectfont  $\leftarrow \joinrel  \rhook $}}{}{}Rigidity\discretionary {\unhbox \voidb@x \hbox {\relax \fontsize  {7}{8}\selectfont  $\leftarrow \joinrel  \rhook $}}{}{}Parameters()}{19}{subsubsection.3.4.3.6}\protected@file@percent }
\newlabel{classOrientation_a0f95110aec763996abf59f4cf03079c4}{{3.4.3.6}{19}{\texorpdfstring {set\+Global\+Rigidity\+Parameters()}{setGlobalRigidityParameters()}}{table.3.6}{}}
\@writefile{toc}{\contentsline {subsubsection}{\numberline {3.4.3.7}set\discretionary {\unhbox \voidb@x \hbox {\relax \fontsize  {7}{8}\selectfont  $\leftarrow \joinrel  \rhook $}}{}{}Sub\discretionary {\unhbox \voidb@x \hbox {\relax \fontsize  {7}{8}\selectfont  $\leftarrow \joinrel  \rhook $}}{}{}Flip\discretionary {\unhbox \voidb@x \hbox {\relax \fontsize  {7}{8}\selectfont  $\leftarrow \joinrel  \rhook $}}{}{}Num()}{19}{subsubsection.3.4.3.7}\protected@file@percent }
\newlabel{classOrientation_aadd9618a08a3c4ac876732dc2d45ba76}{{3.4.3.7}{19}{\texorpdfstring {set\+Sub\+Flip\+Num()}{setSubFlipNum()}}{table.3.7}{}}
\@writefile{toc}{\contentsline {subsubsection}{\numberline {3.4.3.8}set\discretionary {\unhbox \voidb@x \hbox {\relax \fontsize  {7}{8}\selectfont  $\leftarrow \joinrel  \rhook $}}{}{}Tetra\discretionary {\unhbox \voidb@x \hbox {\relax \fontsize  {7}{8}\selectfont  $\leftarrow \joinrel  \rhook $}}{}{}Flip\discretionary {\unhbox \voidb@x \hbox {\relax \fontsize  {7}{8}\selectfont  $\leftarrow \joinrel  \rhook $}}{}{}Num()}{19}{subsubsection.3.4.3.8}\protected@file@percent }
\@writefile{toc}{\contentsline {chapter}{Index}{21}{section*.7}\protected@file@percent }
